R í™œìš© ì„œì§€ë°ì´í„° ë„¤íŠ¸ì›Œí¬ ë¶„ì„ ë° ì‹œê°í™”
…
```r
library(corrr)
cor_res <- mtcars[, c(1, 3:6)] %>% 
  t() %>% correlate() %>% shave(upper = TRUE) %>% 
  stretch(na.rm = TRUE) %>% filter(r >= 0.998)
cor_res
```

```
## # A tibble: 59 x 3
##    x             y                 r
##    <chr>         <chr>         <dbl>
##  1 Mazda RX4     Mazda RX4 Wag 1.00 
##  2 Mazda RX4     Merc 230      1.00 
##  3 Mazda RX4     Merc 280      0.999
##  4 Mazda RX4     Merc 280C     0.999
##  5 Mazda RX4     Merc 450SL    0.998
##  6 Mazda RX4 Wag Merc 230      1.00 
##  7 Mazda RX4 Wag Merc 280      0.999
##  8 Mazda RX4 Wag Merc 280C     0.999
##  9 Mazda RX4 Wag Merc 450SL    0.998
## 10 Datsun 710    Toyota Corona 0.999
## # â€¦ with 49 more rows
```
…
